%YAML 1.1
%TAG !u! tag:unity3d.com,2011:
--- !u!21 &2100000
Material:
  serializedVersion: 6
  m_ObjectHideFlags: 0
  m_PrefabParentObject: {fileID: 0}
  m_PrefabInternal: {fileID: 0}
  m_Name: BombMat
  m_Shader: {fileID: 4800000, guid: 54abb53c83fdb439c919a8067cc10e38, type: 3}
  m_ShaderKeywords: OUTLINES TCP2_BUMP TCP2_OUTLINE_TEXTURED TCP2_RAMPTEXT TCP2_RIMO
    TCP2_SPEC_TOON TCP2_ZSMOOTH_ON
  m_LightmapFlags: 5
  m_CustomRenderQueue: 2000
  stringTagMap: {}
  m_SavedProperties:
    serializedVersion: 2
    m_TexEnvs:
      data:
        first:
          name: _MainTex
        second:
          m_Texture: {fileID: 2800000, guid: 89729be36a69f4b5d9772833188318d1, type: 3}
          m_Scale: {x: .5, y: .5}
          m_Offset: {x: 0, y: 0}
      data:
        first:
          name: _BumpMap
        second:
          m_Texture: {fileID: 2800000, guid: 44124cf7946314979951eb4dfaf6d502, type: 3}
          m_Scale: {x: 1, y: 1}
          m_Offset: {x: 0, y: 0}
      data:
        first:
          name: _DetailNormalMap
        second:
          m_Texture: {fileID: 0}
          m_Scale: {x: 1, y: 1}
          m_Offset: {x: 0, y: 0}
      data:
        first:
          name: _ParallaxMap
        second:
          m_Texture: {fileID: 0}
          m_Scale: {x: 1, y: 1}
          m_Offset: {x: 0, y: 0}
      data:
        first:
          name: _OcclusionMap
        second:
          m_Texture: {fileID: 0}
          m_Scale: {x: 1, y: 1}
          m_Offset: {x: 0, y: 0}
      data:
        first:
          name: _EmissionMap
        second:
          m_Texture: {fileID: 0}
          m_Scale: {x: 1, y: 1}
          m_Offset: {x: 0, y: 0}
      data:
        first:
          name: _DetailMask
        second:
          m_Texture: {fileID: 0}
          m_Scale: {x: 1, y: 1}
          m_Offset: {x: 0, y: 0}
      data:
        first:
          name: _DetailAlbedoMap
        second:
          m_Texture: {fileID: 0}
          m_Scale: {x: 1, y: 1}
          m_Offset: {x: 0, y: 0}
      data:
        first:
          name: _MetallicGlossMap
        second:
          m_Texture: {fileID: 0}
          m_Scale: {x: 1, y: 1}
          m_Offset: {x: 0, y: 0}
      data:
        first:
          name: _Ramp
        second:
          m_Texture: {fileID: 2800000, guid: a54a836f027df3f4a8d894236589b700, type: 3}
          m_Scale: {x: 1, y: 1}
          m_Offset: {x: 0, y: 0}
      data:
        first:
          name: _MatCap
        second:
          m_Texture: {fileID: 0}
          m_Scale: {x: 1, y: 1}
          m_Offset: {x: 0, y: 0}
    m_Floats:
      data:
        first:
          name: _SrcBlend
        second: 1
      data:
        first:
          name: _DstBlend
        second: 0
      data:
        first:
          name: _Cutoff
        second: .5
      data:
        first:
          name: _Shininess
        second: 2
      data:
        first:
          name: _Parallax
        second: .0199999996
      data:
        first:
          name: _ZWrite
        second: 1
      data:
        first:
          name: _Glossiness
        second: .5
      data:
        first:
          name: _BumpScale
        second: 1
      data:
        first:
          name: _OcclusionStrength
        second: 1
      data:
        first:
          name: _DetailNormalMapScale
        second: 1
      data:
        first:
          name: _UVSec
        second: 0
      data:
        first:
          name: _Mode
        second: 0
      data:
        first:
          name: _Metallic
        second: 0
      data:
        first:
          name: _RampThreshold
        second: .5
      data:
        first:
          name: _RampSmooth
        second: .100000001
      data:
        first:
          name: _Outline
        second: 4.28000021
      data:
        first:
          name: _TexLod
        second: 5
      data:
        first:
          name: _ZSmooth
        second: -1.99000001
      data:
        first:
          name: _Offset1
        second: 0
      data:
        first:
          name: _Offset2
        second: 0
      data:
        first:
          name: _SpecSmooth
        second: 1
      data:
        first:
          name: _SrcBlendOutline
        second: 5
      data:
        first:
          name: _DstBlendOutline
        second: 10
      data:
        first:
          name: _RimMin
        second: .987999976
      data:
        first:
          name: _RimMax
        second: 1
    m_Colors:
      data:
        first:
          name: _EmissionColor
        second: {r: 0, g: 0, b: 0, a: 1}
      data:
        first:
          name: _Color
        second: {r: 1, g: 1, b: 1, a: 1}
      data:
        first:
          name: _SpecColor
        second: {r: 1, g: .588235259, b: .588235259, a: 1}
      data:
        first:
          name: _HColor
        second: {r: .600000024, g: .600000024, b: .600000024, a: 1}
      data:
        first:
          name: _SColor
        second: {r: .200000003, g: .200000003, b: .200000003, a: 1}
      data:
        first:
          name: _OutlineColor
        second: {r: .200000003, g: .200000003, b: .200000003, a: 1}
      data:
        first:
          name: _RimColor
        second: {r: 1, g: 1, b: 1, a: .600000024}
      data:
        first:
          name: _RimDir
        second: {r: 0, g: 0, b: 1, a: 0}
