%YAML 1.1
%TAG !u! tag:unity3d.com,2011:
--- !u!21 &2100000
Material:
  serializedVersion: 5
  m_ObjectHideFlags: 0
  m_PrefabParentObject: {fileID: 0}
  m_PrefabInternal: {fileID: 0}
  m_Name: WindMaterial
  m_Shader: {fileID: 4800000, guid: 690fafa4c3f089f428b15f8c987de75c, type: 3}
  m_ShaderKeywords: 
  m_LightmapFlags: 5
  m_CustomRenderQueue: -1
  m_SavedProperties:
    serializedVersion: 2
    m_TexEnvs:
      data:
        first:
          name: _MainTex
        second:
          m_Texture: {fileID: 2800000, guid: db5c2ddd4dbbc15408dd9c3efab385dd, type: 3}
          m_Scale: {x: 1, y: 1}
          m_Offset: {x: 0, y: 0}
      data:
        first:
          name: _Cube
        second:
          m_Texture: {fileID: 8900000, guid: df3ef59e6f146344889002412b40bcf3, type: 2}
          m_Scale: {x: 1, y: 1}
          m_Offset: {x: 0, y: 0}
    m_Floats:
      data:
        first:
          name: _RimPower
        second: .423076928
      data:
        first:
          name: _AlphPower
        second: 1.31343281
      data:
        first:
          name: _AlphaMin
        second: 0
      data:
        first:
          name: _InnerColorPower
        second: .50746268
      data:
        first:
          name: _AlphaPower
        second: 1.55223906
      data:
        first:
          name: _AllPower
        second: 1.16417909
      data:
        first:
          name: _AlphaMultiplier
        second: 8
    m_Colors:
      data:
        first:
          name: _Color
        second: {r: 1, g: 1, b: 1, a: 1}
      data:
        first:
          name: _RimColor
        second: {r: 1, g: 1, b: 1, a: 1}
      data:
        first:
          name: _ReflColor
        second: {r: 1, g: 1, b: 1, a: 0}
      data:
        first:
          name: _InnerColor
        second: {r: .499634475, g: .23880595, b: 1, a: 0}
