%YAML 1.1
%TAG !u! tag:unity3d.com,2011:
--- !u!21 &2100000
Material:
  serializedVersion: 5
  m_ObjectHideFlags: 0
  m_PrefabParentObject: {fileID: 0}
  m_PrefabInternal: {fileID: 0}
  m_Name: ShieldInner
  m_Shader: {fileID: 200, guid: 0000000000000000f000000000000000, type: 0}
  m_ShaderKeywords: 
  m_LightmapFlags: 5
  m_CustomRenderQueue: -1
  m_SavedProperties:
    serializedVersion: 2
    m_TexEnvs:
      data:
        first:
          name: _MainTex
        second:
          m_Texture: {fileID: 2800000, guid: 11fd2f5f82efa334b8c7526990ad0829, type: 3}
          m_Scale: {x: 1, y: 1}
          m_Offset: {x: 0, y: 0}
      data:
        first:
          name: _Cube
        second:
          m_Texture: {fileID: 8900000, guid: df3ef59e6f146344889002412b40bcf3, type: 2}
          m_Scale: {x: 1, y: 1}
          m_Offset: {x: 0, y: 0}
    m_Floats:
      data:
        first:
          name: _InvFade
        second: 1
      data:
        first:
          name: _RimPower
        second: 5
      data:
        first:
          name: _AlphPower
        second: 1.31343281
      data:
        first:
          name: _AlphaMin
        second: 0
      data:
        first:
          name: _InnerColorPower
        second: .50746268
      data:
        first:
          name: _AlphaPower
        second: 1.55223906
      data:
        first:
          name: _AllPower
        second: 1.16417909
    m_Colors:
      data:
        first:
          name: _Color
        second: {r: 1, g: 1, b: 1, a: 1}
      data:
        first:
          name: _TintColor
        second: {r: .399853826, g: .141791046, b: 1, a: .43921569}
      data:
        first:
          name: _RimColor
        second: {r: .812128186, g: .328358233, b: 1, a: 1}
      data:
        first:
          name: _ReflColor
        second: {r: 1, g: 1, b: 1, a: 0}
      data:
        first:
          name: _InnerColor
        second: {r: .499634475, g: .23880595, b: 1, a: 0}
