%YAML 1.1
%TAG !u! tag:unity3d.com,2011:
--- !u!74 &7400000
AnimationClip:
  m_ObjectHideFlags: 0
  m_PrefabParentObject: {fileID: 0}
  m_PrefabInternal: {fileID: 0}
  m_Name: GameSceneCamZoomOut
  serializedVersion: 6
  m_Legacy: 0
  m_Compressed: 0
  m_UseHighQualityCurve: 1
  m_RotationCurves: []
  m_CompressedRotationCurves: []
  m_EulerCurves: []
  m_PositionCurves:
  - curve:
      serializedVersion: 2
      m_Curve:
      - time: 0
        value: {x: 0, y: 15, z: 55.9}
        inSlope: {x: 0, y: 0, z: -70.9}
        outSlope: {x: 0, y: 0, z: -70.9}
        tangentMode: 0
      - time: 1
        value: {x: 0, y: 15, z: -15}
        inSlope: {x: 0, y: 0, z: 0}
        outSlope: {x: 0, y: 0, z: 0}
        tangentMode: 0
      - time: 4
        value: {x: 0, y: 15, z: -15}
        inSlope: {x: 0, y: 0, z: 0}
        outSlope: {x: 0, y: 0, z: 0}
        tangentMode: 0
      - time: 5
        value: {x: 0, y: 15, z: 55.9}
        inSlope: {x: 0, y: 0, z: 0}
        outSlope: {x: 0, y: 0, z: 0}
        tangentMode: 0
      m_PreInfinity: 2
      m_PostInfinity: 2
      m_RotationOrder: 4
    path: 
  - curve:
      serializedVersion: 2
      m_Curve:
      - time: 0
        value: {x: -0.1, y: -15, z: 35}
        inSlope: {x: -0.000000002483527, y: 0, z: 75}
        outSlope: {x: -0.000000002483527, y: 0, z: 75}
        tangentMode: 0
      - time: 1
        value: {x: -0.10000001, y: -15, z: 110}
        inSlope: {x: -0.000000004967054, y: 0, z: 1.7191935}
        outSlope: {x: -0.000000004967054, y: 0, z: 1.7191935}
        tangentMode: 0
      - time: 2.4833333
        value: {x: -0.10000001, y: -80, z: 110}
        inSlope: {x: 0, y: 0, z: 1.3682197}
        outSlope: {x: 0, y: 0, z: 1.3682197}
        tangentMode: 0
      - time: 3
        value: {x: -0.10000001, y: -80, z: 110}
        inSlope: {x: 0, y: 0, z: 0}
        outSlope: {x: 0, y: 0, z: 0}
        tangentMode: 0
      - time: 3.0166667
        value: {x: -0.10000001, y: 92.6, z: 110.09079}
        inSlope: {x: 0, y: 0, z: 0}
        outSlope: {x: 0, y: 0, z: 0}
        tangentMode: 0
      - time: 4.116667
        value: {x: -0.10000001, y: -15, z: 110}
        inSlope: {x: 0.0000000042173105, y: -48.909084, z: -42.494102}
        outSlope: {x: 0.0000000042173105, y: -48.909084, z: -42.494102}
        tangentMode: 0
      - time: 5
        value: {x: -0.1, y: -15, z: 35}
        inSlope: {x: 0.000000008434621, y: 0, z: -84.90567}
        outSlope: {x: 0.000000008434621, y: 0, z: -84.90567}
        tangentMode: 0
      m_PreInfinity: 2
      m_PostInfinity: 2
      m_RotationOrder: 4
    path: planet grayscale
  - curve:
      serializedVersion: 2
      m_Curve:
      - time: 0
        value: {x: 0, y: -2, z: 50}
        inSlope: {x: 0, y: 0, z: 0}
        outSlope: {x: 0, y: 0, z: 0}
        tangentMode: 0
      - time: 1
        value: {x: 0, y: -2, z: 116.3}
        inSlope: {x: 0, y: 0, z: 0}
        outSlope: {x: 0, y: 0, z: 0}
        tangentMode: 0
      m_PreInfinity: 2
      m_PostInfinity: 2
      m_RotationOrder: 4
    path: Stars
  m_ScaleCurves: []
  m_FloatCurves:
  - curve:
      serializedVersion: 2
      m_Curve:
      - time: 0
        value: 0
        inSlope: Infinity
        outSlope: Infinity
        tangentMode: 31
      - time: 1
        value: 0
        inSlope: Infinity
        outSlope: Infinity
        tangentMode: 31
      - time: 5
        value: 1
        inSlope: Infinity
        outSlope: Infinity
        tangentMode: 31
      m_PreInfinity: 2
      m_PostInfinity: 2
      m_RotationOrder: 4
    attribute: orthographic
    path: 
    classID: 20
    script: {fileID: 0}
  - curve:
      serializedVersion: 2
      m_Curve:
      - time: 0
        value: 70
        inSlope: 0
        outSlope: 0
        tangentMode: 0
      - time: 1
        value: 100
        inSlope: 0
        outSlope: 0
        tangentMode: 0
      - time: 4.983333
        value: 100
        inSlope: 0
        outSlope: 0
        tangentMode: 0
      - time: 5
        value: 20
        inSlope: 0
        outSlope: 0
        tangentMode: 0
      m_PreInfinity: 2
      m_PostInfinity: 2
      m_RotationOrder: 4
    attribute: ShapeModule.boxX
    path: Stars
    classID: 198
    script: {fileID: 0}
  - curve:
      serializedVersion: 2
      m_Curve:
      - time: 0
        value: 100
        inSlope: 0
        outSlope: 0
        tangentMode: 0
      - time: 1
        value: 150
        inSlope: 0
        outSlope: 0
        tangentMode: 0
      - time: 4.983333
        value: 150
        inSlope: 0
        outSlope: 0
        tangentMode: 0
      - time: 5
        value: 40
        inSlope: 0
        outSlope: 0
        tangentMode: 0
      m_PreInfinity: 2
      m_PostInfinity: 2
      m_RotationOrder: 4
    attribute: ShapeModule.boxY
    path: Stars
    classID: 198
    script: {fileID: 0}
  - curve:
      serializedVersion: 2
      m_Curve:
      - time: 0
        value: 0
        inSlope: 0
        outSlope: 0
        tangentMode: 0
      m_PreInfinity: 2
      m_PostInfinity: 2
      m_RotationOrder: 4
    attribute: ShapeModule.boxZ
    path: Stars
    classID: 198
    script: {fileID: 0}
  - curve:
      serializedVersion: 2
      m_Curve:
      - time: 0
        value: 0
        inSlope: 0
        outSlope: 0
        tangentMode: 0
      m_PreInfinity: 2
      m_PostInfinity: 2
      m_RotationOrder: 4
    attribute: ShapeModule.randomDirection
    path: Stars
    classID: 198
    script: {fileID: 0}
  - curve:
      serializedVersion: 2
      m_Curve:
      - time: 0
        value: 1
        inSlope: Infinity
        outSlope: Infinity
        tangentMode: 31
      - time: 2.5666666
        value: 0
        inSlope: Infinity
        outSlope: Infinity
        tangentMode: 31
      - time: 3.1833334
        value: 1
        inSlope: Infinity
        outSlope: Infinity
        tangentMode: 31
      - time: 5
        value: 1
        inSlope: Infinity
        outSlope: Infinity
        tangentMode: 31
      m_PreInfinity: 2
      m_PostInfinity: 2
      m_RotationOrder: 4
    attribute: m_Enabled
    path: planet grayscale
    classID: 212
    script: {fileID: 0}
  - curve:
      serializedVersion: 2
      m_Curve:
      - time: 0
        value: 400
        inSlope: 0
        outSlope: 0
        tangentMode: 0
      - time: 1
        value: 1000
        inSlope: 0
        outSlope: 0
        tangentMode: 0
      - time: 4.983333
        value: 1001
        inSlope: 0
        outSlope: 0
        tangentMode: 0
      - time: 5
        value: 400
        inSlope: 0
        outSlope: 0
        tangentMode: 0
      m_PreInfinity: 2
      m_PostInfinity: 2
      m_RotationOrder: 4
    attribute: EmissionModule.rate.scalar
    path: Stars
    classID: 198
    script: {fileID: 0}
  m_PPtrCurves: []
  m_SampleRate: 60
  m_WrapMode: 0
  m_Bounds:
    m_Center: {x: 0, y: 0, z: 0}
    m_Extent: {x: 0, y: 0, z: 0}
  m_ClipBindingConstant:
    genericBindings:
    - path: 0
      attribute: 1
      script: {fileID: 0}
      classID: 4
      customType: 0
      isPPtrCurve: 0
    - path: 2641962498
      attribute: 1
      script: {fileID: 0}
      classID: 4
      customType: 0
      isPPtrCurve: 0
    - path: 3235704616
      attribute: 1
      script: {fileID: 0}
      classID: 4
      customType: 0
      isPPtrCurve: 0
    - path: 0
      attribute: 2002333753
      script: {fileID: 0}
      classID: 20
      customType: 0
      isPPtrCurve: 0
    - path: 3235704616
      attribute: 2036941725
      script: {fileID: 0}
      classID: 198
      customType: 0
      isPPtrCurve: 0
    - path: 3235704616
      attribute: 242119435
      script: {fileID: 0}
      classID: 198
      customType: 0
      isPPtrCurve: 0
    - path: 2641962498
      attribute: 3305885265
      script: {fileID: 0}
      classID: 212
      customType: 0
      isPPtrCurve: 0
    - path: 3235704616
      attribute: 2181258151
      script: {fileID: 0}
      classID: 198
      customType: 0
      isPPtrCurve: 0
    - path: 3235704616
      attribute: 2540118705
      script: {fileID: 0}
      classID: 198
      customType: 0
      isPPtrCurve: 0
    - path: 3235704616
      attribute: 2028564117
      script: {fileID: 0}
      classID: 198
      customType: 0
      isPPtrCurve: 0
    pptrCurveMapping: []
  m_AnimationClipSettings:
    serializedVersion: 2
    m_AdditiveReferencePoseClip: {fileID: 0}
    m_AdditiveReferencePoseTime: 0
    m_StartTime: 0
    m_StopTime: 5
    m_OrientationOffsetY: 0
    m_Level: 0
    m_CycleOffset: 0
    m_HasAdditiveReferencePose: 0
    m_LoopTime: 0
    m_LoopBlend: 0
    m_LoopBlendOrientation: 0
    m_LoopBlendPositionY: 0
    m_LoopBlendPositionXZ: 0
    m_KeepOriginalOrientation: 0
    m_KeepOriginalPositionY: 1
    m_KeepOriginalPositionXZ: 0
    m_HeightFromFeet: 0
    m_Mirror: 0
  m_EditorCurves:
  - curve:
      serializedVersion: 2
      m_Curve:
      - time: 0
        value: 0
        inSlope: Infinity
        outSlope: Infinity
        tangentMode: 31
      - time: 1
        value: 0
        inSlope: Infinity
        outSlope: Infinity
        tangentMode: 31
      - time: 5
        value: 1
        inSlope: Infinity
        outSlope: Infinity
        tangentMode: 31
      m_PreInfinity: 2
      m_PostInfinity: 2
      m_RotationOrder: 4
    attribute: orthographic
    path: 
    classID: 20
    script: {fileID: 0}
  - curve:
      serializedVersion: 2
      m_Curve:
      - time: 0
        value: 0
        inSlope: 0
        outSlope: 0
        tangentMode: 10
      - time: 1
        value: 0
        inSlope: 0
        outSlope: 0
        tangentMode: 10
      - time: 5
        value: 0
        inSlope: 0
        outSlope: 0
        tangentMode: 10
      m_PreInfinity: 2
      m_PostInfinity: 2
      m_RotationOrder: 4
    attribute: m_LocalPosition.x
    path: 
    classID: 4
    script: {fileID: 0}
  - curve:
      serializedVersion: 2
      m_Curve:
      - time: 0
        value: 15
        inSlope: 0
        outSlope: 0
        tangentMode: 10
      - time: 1
        value: 15
        inSlope: 0
        outSlope: 0
        tangentMode: 10
      m_PreInfinity: 2
      m_PostInfinity: 2
      m_RotationOrder: 4
    attribute: m_LocalPosition.y
    path: 
    classID: 4
    script: {fileID: 0}
  - curve:
      serializedVersion: 2
      m_Curve:
      - time: 0
        value: 55.9
        inSlope: -70.9
        outSlope: -70.9
        tangentMode: 10
      - time: 1
        value: -15
        inSlope: 0
        outSlope: 0
        tangentMode: 0
      - time: 4
        value: -15
        inSlope: 0
        outSlope: 0
        tangentMode: 0
      - time: 5
        value: 55.9
        inSlope: 0
        outSlope: 0
        tangentMode: 0
      m_PreInfinity: 2
      m_PostInfinity: 2
      m_RotationOrder: 4
    attribute: m_LocalPosition.z
    path: 
    classID: 4
    script: {fileID: 0}
  - curve:
      serializedVersion: 2
      m_Curve:
      - time: 0
        value: -0.1
        inSlope: -0.000000002483527
        outSlope: -0.000000002483527
        tangentMode: 10
      - time: 3
        value: -0.10000001
        inSlope: 0
        outSlope: 0
        tangentMode: 0
      - time: 3.0166667
        value: -0.10000001
        inSlope: 0
        outSlope: 0
        tangentMode: 0
      - time: 4.116667
        value: -0.10000001
        inSlope: 0.0000000042173105
        outSlope: 0.0000000042173105
        tangentMode: 0
      - time: 5
        value: -0.1
        inSlope: 0.000000008434621
        outSlope: 0.000000008434621
        tangentMode: 0
      m_PreInfinity: 2
      m_PostInfinity: 2
      m_RotationOrder: 4
    attribute: m_LocalPosition.x
    path: planet grayscale
    classID: 4
    script: {fileID: 0}
  - curve:
      serializedVersion: 2
      m_Curve:
      - time: 0
        value: -15
        inSlope: 0
        outSlope: 0
        tangentMode: 10
      - time: 1
        value: -15
        inSlope: 0
        outSlope: 0
        tangentMode: 0
      - time: 2.4833333
        value: -80
        inSlope: 0
        outSlope: 0
        tangentMode: 0
      - time: 3
        value: -80
        inSlope: 0
        outSlope: 0
        tangentMode: 0
      - time: 3.0166667
        value: 92.6
        inSlope: 0
        outSlope: 0
        tangentMode: 0
      - time: 4.116667
        value: -15
        inSlope: -48.909084
        outSlope: -48.909084
        tangentMode: 0
      - time: 5
        value: -15
        inSlope: 0
        outSlope: 0
        tangentMode: 0
      m_PreInfinity: 2
      m_PostInfinity: 2
      m_RotationOrder: 4
    attribute: m_LocalPosition.y
    path: planet grayscale
    classID: 4
    script: {fileID: 0}
  - curve:
      serializedVersion: 2
      m_Curve:
      - time: 0
        value: 35
        inSlope: 75
        outSlope: 75
        tangentMode: 10
      - time: 1
        value: 110
        inSlope: 1.7191935
        outSlope: 1.7191935
        tangentMode: 0
      - time: 2.4833333
        value: 110
        inSlope: 1.3682197
        outSlope: 1.3682197
        tangentMode: 0
      - time: 3
        value: 110
        inSlope: 0
        outSlope: 0
        tangentMode: 0
      - time: 3.0166667
        value: 110.09079
        inSlope: 0
        outSlope: 0
        tangentMode: 0
      - time: 4.116667
        value: 110
        inSlope: -42.494102
        outSlope: -42.494102
        tangentMode: 0
      - time: 5
        value: 35
        inSlope: -84.90567
        outSlope: -84.90567
        tangentMode: 0
      m_PreInfinity: 2
      m_PostInfinity: 2
      m_RotationOrder: 4
    attribute: m_LocalPosition.z
    path: planet grayscale
    classID: 4
    script: {fileID: 0}
  - curve:
      serializedVersion: 2
      m_Curve:
      - time: 0
        value: 70
        inSlope: 0
        outSlope: 0
        tangentMode: 0
      - time: 1
        value: 100
        inSlope: 0
        outSlope: 0
        tangentMode: 0
      - time: 4.983333
        value: 100
        inSlope: 0
        outSlope: 0
        tangentMode: 0
      - time: 5
        value: 20
        inSlope: 0
        outSlope: 0
        tangentMode: 0
      m_PreInfinity: 2
      m_PostInfinity: 2
      m_RotationOrder: 4
    attribute: ShapeModule.boxX
    path: Stars
    classID: 198
    script: {fileID: 0}
  - curve:
      serializedVersion: 2
      m_Curve:
      - time: 0
        value: 100
        inSlope: 0
        outSlope: 0
        tangentMode: 0
      - time: 1
        value: 150
        inSlope: 0
        outSlope: 0
        tangentMode: 0
      - time: 4.983333
        value: 150
        inSlope: 0
        outSlope: 0
        tangentMode: 0
      - time: 5
        value: 40
        inSlope: 0
        outSlope: 0
        tangentMode: 0
      m_PreInfinity: 2
      m_PostInfinity: 2
      m_RotationOrder: 4
    attribute: ShapeModule.boxY
    path: Stars
    classID: 198
    script: {fileID: 0}
  - curve:
      serializedVersion: 2
      m_Curve:
      - time: 0
        value: 0
        inSlope: 0
        outSlope: 0
        tangentMode: 0
      m_PreInfinity: 2
      m_PostInfinity: 2
      m_RotationOrder: 4
    attribute: ShapeModule.boxZ
    path: Stars
    classID: 198
    script: {fileID: 0}
  - curve:
      serializedVersion: 2
      m_Curve:
      - time: 0
        value: 0
        inSlope: 0
        outSlope: 0
        tangentMode: 0
      m_PreInfinity: 2
      m_PostInfinity: 2
      m_RotationOrder: 4
    attribute: ShapeModule.randomDirection
    path: Stars
    classID: 198
    script: {fileID: 0}
  - curve:
      serializedVersion: 2
      m_Curve:
      - time: 0
        value: 1
        inSlope: Infinity
        outSlope: Infinity
        tangentMode: 31
      - time: 2.5666666
        value: 0
        inSlope: Infinity
        outSlope: Infinity
        tangentMode: 31
      - time: 3.1833334
        value: 1
        inSlope: Infinity
        outSlope: Infinity
        tangentMode: 31
      - time: 5
        value: 1
        inSlope: Infinity
        outSlope: Infinity
        tangentMode: 31
      m_PreInfinity: 2
      m_PostInfinity: 2
      m_RotationOrder: 4
    attribute: m_Enabled
    path: planet grayscale
    classID: 212
    script: {fileID: 0}
  - curve:
      serializedVersion: 2
      m_Curve:
      - time: 0
        value: 0
        inSlope: 0
        outSlope: 0
        tangentMode: 0
      - time: 1
        value: 0
        inSlope: 0
        outSlope: 0
        tangentMode: 0
      m_PreInfinity: 2
      m_PostInfinity: 2
      m_RotationOrder: 4
    attribute: m_LocalPosition.x
    path: Stars
    classID: 4
    script: {fileID: 0}
  - curve:
      serializedVersion: 2
      m_Curve:
      - time: 0
        value: -2
        inSlope: 0
        outSlope: 0
        tangentMode: 0
      - time: 1
        value: -2
        inSlope: 0
        outSlope: 0
        tangentMode: 0
      m_PreInfinity: 2
      m_PostInfinity: 2
      m_RotationOrder: 4
    attribute: m_LocalPosition.y
    path: Stars
    classID: 4
    script: {fileID: 0}
  - curve:
      serializedVersion: 2
      m_Curve:
      - time: 0
        value: 50
        inSlope: 0
        outSlope: 0
        tangentMode: 0
      - time: 1
        value: 116.3
        inSlope: 0
        outSlope: 0
        tangentMode: 0
      m_PreInfinity: 2
      m_PostInfinity: 2
      m_RotationOrder: 4
    attribute: m_LocalPosition.z
    path: Stars
    classID: 4
    script: {fileID: 0}
  - curve:
      serializedVersion: 2
      m_Curve:
      - time: 0
        value: 400
        inSlope: 0
        outSlope: 0
        tangentMode: 0
      - time: 1
        value: 1000
        inSlope: 0
        outSlope: 0
        tangentMode: 0
      - time: 4.983333
        value: 1001
        inSlope: 0
        outSlope: 0
        tangentMode: 0
      - time: 5
        value: 400
        inSlope: 0
        outSlope: 0
        tangentMode: 0
      m_PreInfinity: 2
      m_PostInfinity: 2
      m_RotationOrder: 4
    attribute: EmissionModule.rate.scalar
    path: Stars
    classID: 198
    script: {fileID: 0}
  m_EulerEditorCurves: []
  m_HasGenericRootTransform: 1
  m_HasMotionFloatCurves: 0
  m_GenerateMotionCurves: 0
  m_Events:
  - time: 1
    functionName: ToggleStars
    data: 
    objectReferenceParameter: {fileID: 0}
    floatParameter: 0
    intParameter: 0
    messageOptions: 0
  - time: 3
    functionName: SetRandomColor
    data: 
    objectReferenceParameter: {fileID: 0}
    floatParameter: 0
    intParameter: 0
    messageOptions: 0
  - time: 4.116667
    functionName: ToggleStars
    data: 
    objectReferenceParameter: {fileID: 0}
    floatParameter: 0
    intParameter: 0
    messageOptions: 0
  - time: 4.983333
    functionName: BackToGame
    data: 
    objectReferenceParameter: {fileID: 0}
    floatParameter: 0
    intParameter: 0
    messageOptions: 0
